# ==============================================================
# Vitis HLS - High-Level Synthesis from C, C++ and OpenCL v2022.2 (64-bit)
# Tool Version Limit: 2019.12
# Copyright 1986-2022 Xilinx, Inc. All Rights Reserved.
# ==============================================================

Family       : zynq
Device       : xc7z020
Package      : -clg484
Speed Grade  : -1
Clock Period : 8.330 ns
