1639
0
0
0
0
0
0
0
0
0
0
0
0
0
0
0
0
0
0
0
0
0
0
0
0
0
0
0
0
0
0
1
5
65
388
930
1260
1317
1493
1504
1570
1638
1775
1902
1964
2261
2393
2491
2808
2976
3074
3137
3265
3376
3444
3471
3540
3591
3727
3739
3618
3675
3715
3710
3680
3695
3610
3526
3581
3556
3524
3488
3512
3608
3560
3491
3518
3505
3473
3546
3473
3460
3398
3446
3529
3401
3561
3451
3503
3587
3531
3512
3571
3509
3471
3502
3583
3510
3513
3440
3525
3505
3462
3483
3395
3429
3409
3452
3428
3515
3530
3399
3406
3411
3484
3511
3418
3523
3466
3480
3513
3473
3560
3580
3579
3532
3625
3686
3779
3726
3759
3822
4014
3968
4066
4101
4175
4312
4313
4292
4314
4303
4379
4294
4365
4505
4426
4650
4451
4394
4469
4499
4339
4371
4479
4398
4339
4363
4316
4259
4184
4089
4102
4089
4016
3929
3899
3798
3839
3562
3707
3691
3542
3535
3357
3470
3424
3450
3262
3264
3141
3179
3104
3086
2991
2933
2980
2920
2906
2937
2785
2803
2879
2823
2842
2764
2701
2836
2726
2653
2708
2703
2740
2673
2602
2639
2637
2681
2547
2648
2643
2541
2555
2568
2605
2532
2609
2566
2527
2556
2601
2521
2544
2548
2559
2496
2451
2491
2457
2538
2530
2487
2338
2358
2566
2492
2435
2529
2455
2487
2384
2426
2461
2436
2481
2397
2491
2467
2558
2442
2445
2495
2505
2443
2456
2477
2431
2500
2369
2449
2395
2484
2423
2532
2479
2437
2432
2434
2451
2544
2444
2508
2433
2422
2404
2495
2498
2515
2538
2573
2547
2520
2540
2629
2540
2475
2502
2597
2613
2536
2547
2581
2497
2564
2689
2561
2633
2562
2780
2673
2757
2673
2508
2699
2632
2644
2623
2715
2757
2683
2710
2690
2713
2728
2679
2760
2688
2752
2749
2802
2760
2715
2792
2776
2827
2774
2704
2779
2800
2794
2882
2829
2797
2756
2829
2890
2812
2860
2841
2847
2727
2844
2756
2713
2794
2748
2624
2736
2691
2560
2545
2535
2520
2572
2580
2527
2432
2361
2470
2454
2329
2250
2260
2241
2190
2202
2101
2058
2006
1932
1854
1937
1926
1759
1808
1620
1617
1630
1495
1541
1435
1412
1288
1259
1280
1192
1195
1019
1060
1055
968
906
915
840
848
883
780
781
654
720
646
620
622
571
598
559
491
514
511
509
418
425
469
397
397
380
429
339
379
357
306
315
321
302
302
264
293
283
297
285
296
273
295
271
294
290
282
281
285
282
292
306
329
303
318
317
304
375
364
367
383
408
396
427
451
425
479
524
503
544
568
602
607
612
714
695
795
748
795
808
896
942
952
922
1014
1059
1134
1186
1221
1242
1314
1348
1391
1492
1496
1625
1668
1707
1756
1827
1763
1899
1924
2083
2072
2163
2213
2208
2365
2370
2437
2466
2565
2627
2616
2601
2818
2672
2786
2777
2853
2908
2863
2931
2869
2892
2926
2797
2835
2808
2768
2797
2702
2685
2560
2585
2533
2464
2422
2296
2272
2224
2164
2065
1963
1960
1792
1844
1648
1678
1517
1457
1424
1323
1207
1182
1078
1018
993
925
882
810
763
716
591
581
527
485
437
397
372
347
345
274
265
234
179
204
194
139
128
116
101
81
84
66
72
67
63
58
42
32
34
27
33
37
33
20
20
19
13
17
19
10
8
16
8
12
10
13
7
8
6
7
7
7
8
5
8
9
8
2
8
9
5
7
11
7
7
6
6
11
7
6
3
8
4
3
9
6
5
6
8
5
9
5
4
9
5
4
4
2
6
12
3
3
5
3
4
5
3
5
5
3
8
5
5
1
4
2
2
6
11
5
6
6
4
5
6
8
4
3
4
6
3
3
4
1
5
3
2
3
3
5
8
2
4
3
4
0
6
2
2
5
5
6
2
1
4
2
2
2
4
3
6
3
3
3
6
1
2
2
3
2
4
4
1
1
6
3
3
3
6
1
2
2
7
1
0
2
3
1
5
1
4
4
1
3
2
4
3
2
3
4
3
2
1
4
3
5
2
3
2
3
2
0
5
2
3
1
3
6
2
1
2
3
1
1
2
0
4
1
2
0
2
0
2
5
3
3
4
3
2
1
0
0
1
2
1
0
3
3
0
4
3
1
2
1
1
2
0
0
1
0
0
1
1
2
0
2
2
0
4
2
0
1
0
0
3
1
2
1
1
1
0
1
2
1
1
1
2
1
0
0
0
3
1
0
1
2
3
2
0
2
0
1
1
1
2
1
1
0
1
0
2
1
2
1
0
1
1
0
0
3
3
2
1
3
2
1
2
0
3
1
0
0
0
0
1
1
3
1
1
2
0
1
2
1
2
2
2
0
4
1
0
0
1
0
1
0
2
1
2
0
0
0
2
0
0
2
0
1
0
1
1
3
0
1
0
2
1
1
1
0
2
2
1
1
2
1
0
0
1
0
0
2
1
1
1
2
2
2
3
1
2
1
1
0
2
0
0
1
2
0
0
1
0
0
0
0
0
1
1
0
0
1
1
0
0
1
1
2
1
1
1
1
0
1
0
2
0
0
1
0
2
0
0
1
2
0
0
0
0
0
1
0
0
0
0
1
1
1
1
3
0
3
0
0
1
0
0
0
1
0
1
0
0
1
1
0
2
2
0
1
2
1
2
2
0
1
2
1
3
2
3
2
4
4
4
1
5
4
1
3
2
2
3
2
2
0
2
1
3
1
4
1
1
3
0
2
1
0
1
4
1
0
1
1
1
1
0
2
1
0
1
0
0
1
1
2
0
1
2
0
2
2
1
0
0
0
0
1
3
1
0
0
1
3
3
0
2
1
1
2
3
0
0
1
3
2
4
3
4
2
0
3
0
2
1
5
5
2
4
4
5
0
2
3
7
4
1
3
1
0
0
0
0
0
0
0
0
0
0
0
0
0
0
0
0
0
0
0
0
0
0
0
0
0
0
0
0
0
0
0
0
0
0
0
0
0
0
0
0
0
0
0
0
0
0
0
0
0
0
0
0
0
0
0
0
0
0
0
0
0
0
0
0
0
0
0
0
0
0
0
0
0
0
0
0
0
0
0
0
0
0
0
0
0
0
0
0
0
0
0
0
0
0
0
0
0
0
0
0
0
0
0
0
0
0
0
0
0
0
0
0
0
0
0
0
0
0
0
0
0
0
0
0
0
0
0
0
0
0
0
0
0
0
0
0
0
0
0
0
0
0
0
0
0
0
0
0
0
0
0
0
0
0
0
0
0
0
0
0
0
0
0
0
0
0
0
0
0
0
0
0
0
0
0
0
0
0
0
0
0
0
0
0
0
0
0
0
0
0
0
0
0
0
0
0
0
0
0
0
0
0
0
0
0
0
0
0
0
0
0
0
0
0
0
0
0
0
0
0
0
0
0
0
0
0
0
0
0
0
0
0
0
0
0
0
0
0
0
0
0
0
0
0
0
0
0
0
0
0
0
0
0
0
0
0
0
0
0
0
0
0
0
0
0
0
0
0
0
0
0
0
0
0
0
0
0
0
0
0
0
0
0
0
0
0
0
0
0
0
0
0
0
0
0
0
0
0
0
0
0
0
0
0
0
0
0
0
0
0
0
0
0
0
0
0
0
0
0
0
0
0
0
0
0
0
0
0
0
0
0
0
0
0
0
0
0
0
0
0
0
0
0
0
0
0
0
0
0
0
0
0
0
0
0
0
0
0
0
0
0
0
0
0
0
0
0
0
0
0
0
0
0
0
0
0
0
0
0
0
0
0
0
0
0
0
0
0
0
0
0
0
0
0
0
0
0
0
0
0
0
0
0
0
0
0
0
0
0
0
0
0
0
0
0
0
0
0
0
0
0
0
0
0
0
0
0
0
0
0
0
0
0
0
0
0
0
0
0
0
0
0
0
0
0
0
0
0
0
0
0
0
0
0
0
0
0
0
0
0
0
0
0
0
0
0
0
0
0
0
0
0
0
0
0
0
0
0
0
0
0
0
0
0
0
0
0
0
0
0
0
0
0
0
0
0
0
0
0
0
0
0
0
0
0
0
0
0
0
0
0
0
0
0
0
0
0
0
0
0
0
0
0
0
0
0
0
0
0
0
0
0
0
0
0
0
0
0
0
0
0
0
0
0
0
0
0
0
0
0
0
0
0
0
0
0
0
0
0
0
0
0
0
0
0
0
0
0
0
0
0
0
0
0
0
0
0
0
0
0
0
0
0
0
0
0
0
0
0
0
0
0
0
0
0
0
0
0
0
0
0
0
0
0
0
0
0
0
0
0
0
0
0
0
0
0
0
0
0
0
0
0
0
0
0
0
0
0
0
0
0
0
0
0
0
0
0
0
0
0
0
0
0
0
0
0
0
0
0
0
0
0
0
0
0
0
0
0
0
0
0
0
0
0
0
0
0
0
0
0
0
0
0
0
0
0
0
0
0
0
0
0
0
0
0
0
0
0
0
0
0
0
0
0
0
0
0
0
0
0
0
0
0
0
0
0
0
0
0
0
0
0
0
0
0
0
0
0
0
0
0
0
0
0
0
0
0
0
0
0
0
0
0
0
0
0
0
0
0
0
0
0
0
0
0
0
0
0
0
0
0
0
0
0
0
0
0
0
0
0
0
0
0
0
0
0
0
0
0
0
0
0
0
0
0
0
0
0
0
0
0
0
0
0
0
0
0
0
0
0
0
0
0
0
0
0
0
0
0
0
0
0
0
0
0
0
0
0
0
0
0
0
0
0
0
0
0
0
0
0
0
0
0
0
0
0
0
0
0
0
0
0
0
0
0
0
0
0
0
0
0
0
0
0
0
0
0
0
0
0
0
0
0
0
0
0
0
0
0
0
0
0
0
0
0
0
0
0
0
0
0
0
0
0
0
0
0
0
0
0
0
0
0
0
0
0
0
0
0
0
0
0
0
0
0
0
0
0
0
0
0
0
0
0
0
0
0
0
0
0
0
0
0
0
0
