935
0
0
0
0
0
0
0
0
0
0
0
0
0
0
0
0
0
0
0
0
0
0
0
0
0
0
0
0
0
0
1
3
39
322
934
1607
2189
2701
3525
4006
4554
5198
5786
6093
6752
7236
7814
8435
8784
9348
9860
10134
10434
10964
11262
11556
12141
12117
12449
12844
12925
12936
13223
13245
13459
13509
13411
13310
13224
13296
13188
13193
13097
12977
12784
12545
12549
12176
12080
11931
11791
11655
11474
11168
11201
10829
10926
10656
10508
10514
10344
9981
9862
9866
9807
9467
9521
9165
9107
8835
8685
8696
8570
8322
8177
7983
7938
7751
7672
7463
7326
7103
6986
6950
6776
6833
6630
6374
6337
6282
6015
6020
5837
5758
5705
5484
5528
5453
5202
5166
5154
5015
4976
4944
4800
4767
4607
4628
4512
4430
4325
4275
4324
4165
4156
4262
4111
4020
4014
3873
3854
3747
3748
3646
3597
3642
3572
3515
3499
3480
3410
3310
3354
3144
3062
3058
2937
3035
2902
2945
2788
2767
2780
2793
2649
2680
2565
2679
2562
2538
2482
2494
2375
2404
2340
2357
2188
2242
2185
2189
2167
2110
2100
2012
2057
1913
1882
1880
1831
1752
1832
1746
1682
1739
1725
1575
1717
1588
1617
1635
1553
1603
1545
1452
1454
1508
1488
1459
1409
1357
1417
1429
1325
1408
1391
1344
1281
1371
1356
1285
1269
1263
1222
1274
1217
1244
1234
1264
1181
1142
1170
1099
1170
1201
1128
1136
1134
1100
1141
1085
1146
1110
1162
1084
1092
1067
1067
1071
1113
1096
1112
1046
1101
1064
1063
1008
1071
1035
1047
1020
1022
942
972
1016
976
1003
970
997
957
965
922
980
981
912
953
953
948
903
876
892
905
891
918
886
907
909
878
899
927
855
830
889
823
915
863
881
884
865
822
825
933
843
906
852
850
906
840
879
919
879
892
851
877
862
817
893
827
846
872
889
822
831
855
833
874
881
809
851
827
766
813
774
814
792
816
761
810
824
765
801
771
779
824
766
712
732
737
714
743
628
672
649
714
647
671
656
616
653
568
617
556
560
549
557
557
522
473
491
493
513
433
464
417
411
394
427
428
408
424
370
366
319
348
358
302
349
343
338
279
319
307
287
291
279
272
275
259
291
275
262
265
257
274
276
259
2827
254
209
225
212
217
220
233
221
209
227
201
245
188
209
230
218
203
222
200
204
237
235
241
215
205
213
184
215
226
238
228
231
232
275
238
254
216
255
244
238
262
266
260
279
316
297
322
289
327
335
340
327
359
363
353
363
403
368
380
369
398
397
407
485
449
485
507
477
465
518
566
508
550
532
520
575
616
597
564
638
637
632
695
625
693
641
705
702
719
757
685
727
726
684
655
658
732
670
657
625
692
703
669
642
638
683
620
587
596
652
578
559
519
520
483
477
457
435
415
424
433
390
356
343
351
329
298
270
279
267
244
200
266
206
218
202
163
152
175
128
147
137
144
127
132
125
127
114
90
117
132
99
90
104
95
98
94
75
75
65
90
75
79
88
87
75
94
83
80
57
75
83
76
68
73
57
80
82
67
85
82
74
73
74
74
65
69
64
75
68
75
75
83
64
79
61
55
63
78
67
71
74
64
65
68
72
83
79
75
79
55
72
68
62
62
76
64
61
58
58
74
69
68
61
51
63
57
57
57
66
63
62
81
67
55
66
58
66
72
66
63
72
66
58
60
59
63
69
77
60
76
69
56
55
62
63
61
69
55
64
56
50
66
56
61
62
58
73
62
57
59
64
56
61
57
68
45
63
53
62
60
73
76
68
52
63
61
70
55
63
54
58
63
42
60
60
61
57
60
62
51
50
55
51
53
64
51
54
58
61
59
61
42
58
59
55
51
45
48
58
44
46
58
58
53
53
58
52
59
54
49
54
48
50
59
44
47
37
52
39
53
56
49
47
55
52
46
39
53
47
51
74
62
56
47
50
47
48
41
64
49
49
45
42
38
52
44
42
49
53
55
41
41
43
35
44
44
70
53
54
55
56
47
50
41
49
44
47
52
35
40
49
40
57
53
39
56
37
48
53
47
30
43
45
45
46
51
45
45
49
41
38
32
40
49
34
57
30
48
50
44
58
46
58
31
43
51
45
53
42
62
44
43
48
41
46
44
44
32
39
46
53
44
46
41
45
34
58
59
38
46
48
50
54
47
34
35
58
50
44
38
51
39
41
39
35
37
49
45
46
47
32
40
41
50
52
57
53
31
34
42
32
33
37
34
50
43
31
39
29
38
36
37
34
42
36
38
36
31
46
43
32
37
35
34
34
32
28
33
25
42
43
42
41
34
31
34
26
29
28
33
24
39
39
25
35
30
33
35
32
22
26
34
24
20
26
30
21
16
28
29
34
29
26
21
25
24
24
23
32
29
19
20
20
29
31
24
20
17
31
26
27
27
24
21
23
21
24
21
20
25
21
21
19
22
25
24
25
32
22
24
19
25
28
27
22
17
23
23
15
20
25
24
30
22
20
32
20
26
22
20
26
28
28
36
31
23
25
24
27
27
31
20
36
46
40
56
89
79
87
80
89
95
87
83
88
80
100
100
92
165
174
210
245
227
212
209
170
166
130
128
112
113
129
134
141
145
132
159
128
133
131
100
79
100
66
74
70
79
73
67
87
86
101
64
90
73
57
65
69
67
66
69
68
63
83
78
68
61
64
70
61
53
65
49
59
51
66
53
50
68
68
64
72
64
62
61
79
79
81
72
64
81
76
88
83
76
74
101
105
84
98
96
106
103
107
131
134
140
168
194
216
234
262
276
236
234
201
147
100
59
37
12
10
2
1
0
0
0
0
0
0
0
0
0
0
0
0
0
0
0
0
0
0
0
0
0
0
0
0
0
0
0
0
0
0
0
0
0
0
0
0
0
0
0
0
0
0
0
0
0
0
0
0
0
0
0
0
0
0
0
0
0
0
0
0
0
0
0
0
0
0
0
0
0
0
0
0
0
0
0
0
0
0
0
0
0
0
0
0
0
0
0
0
0
0
0
0
0
0
0
0
0
0
0
0
0
0
0
0
0
0
0
0
0
0
0
0
0
0
0
0
0
0
0
0
0
0
0
0
0
0
0
0
0
0
0
0
0
0
0
0
0
0
0
0
0
0
0
0
0
0
0
0
0
0
0
0
0
0
0
0
0
0
0
0
0
0
0
0
0
0
0
0
0
0
0
0
0
0
0
0
0
0
0
0
0
0
0
0
0
0
0
0
0
0
0
0
0
0
0
0
0
0
0
0
0
0
0
0
0
0
0
0
0
0
0
0
0
0
0
0
0
0
0
0
0
0
0
0
0
0
0
0
0
0
0
0
0
0
0
0
0
0
0
0
0
0
0
0
0
0
0
0
0
0
0
0
0
0
0
0
0
0
0
0
0
0
0
0
0
0
0
0
0
0
0
0
0
0
0
0
0
0
0
0
0
0
0
0
0
0
0
0
0
0
0
0
0
0
0
0
0
0
0
0
0
0
0
0
0
0
0
0
0
0
0
0
0
0
0
0
0
0
0
0
0
0
0
0
0
0
0
0
0
0
0
0
0
0
0
0
0
0
0
0
0
0
0
0
0
0
0
0
0
0
0
0
0
0
0
0
0
0
0
0
0
0
0
0
0
0
0
0
0
0
0
0
0
0
0
0
0
0
0
0
0
0
0
0
0
0
0
0
0
0
0
0
0
0
0
0
0
0
0
0
0
0
0
0
0
0
0
0
0
0
0
0
0
0
0
0
0
0
0
0
0
0
0
0
0
0
0
0
0
0
0
0
0
0
0
0
0
0
0
0
0
0
0
0
0
0
0
0
0
0
0
0
0
0
0
0
0
0
0
0
0
0
0
0
0
0
0
0
0
0
0
0
0
0
0
0
0
0
0
0
0
0
0
0
0
0
0
0
0
0
0
0
0
0
0
0
0
0
0
0
0
0
0
0
0
0
0
0
0
0
0
0
0
0
0
0
0
0
0
0
0
0
0
0
0
0
0
0
0
0
0
0
0
0
0
0
0
0
0
0
0
0
0
0
0
0
0
0
0
0
0
0
0
0
0
0
0
0
0
0
0
0
0
0
0
0
0
0
0
0
0
0
0
0
0
0
0
0
0
0
0
0
0
0
0
0
0
0
0
0
0
0
0
0
0
0
0
0
0
0
0
0
0
0
0
0
0
0
0
0
0
0
0
0
0
0
0
0
0
0
0
0
0
0
0
0
0
0
0
0
0
0
0
0
0
0
0
0
0
0
0
0
0
0
0
0
0
0
0
0
0
0
0
0
0
0
0
0
0
0
0
0
0
0
0
0
0
0
0
0
0
0
0
0
0
0
0
0
0
0
0
0
0
0
0
0
0
0
0
0
0
0
0
0
0
0
0
0
0
0
0
0
0
0
0
0
0
0
0
0
0
0
0
0
0
0
0
0
0
0
0
0
0
0
0
0
0
0
0
0
0
0
0
0
0
0
0
0
0
0
0
0
0
0
0
0
0
0
0
0
0
0
0
0
0
0
0
0
0
0
0
0
0
0
0
0
0
0
0
0
0
0
0
0
0
0
0
0
0
0
0
0
0
0
0
0
0
0
0
0
0
0
0
0
0
0
0
0
0
0
0
0
0
0
0
0
0
0
0
0
0
0
0
0
0
0
0
0
0
0
0
0
0
0
0
0
0
0
0
0
0
0
0
0
0
0
0
0
0
0
0
0
0
0
0
0
0
0
0
0
0
0
0
0
0
0
0
0
0
0
0
0
0
0
0
0
0
0
0
0
0
0
0
0
0
0
0
0
0
0
0
0
0
0
0
0
0
0
0
0
0
0
0
0
6
